{
  "IcoMoonType": "selection",
  "icons": [
    {
      "icon": {
        "paths": [
          "M13.021 804.081c-13.432 13.573-13.432 35.549 0 49.122 13.412 13.553 35.197 13.573 48.63 0l393.035-396.941c13.432-13.573 13.432-35.569 0-49.142l-393.035-396.941c-13.432-13.573-35.197-13.573-48.63 0s-13.432 35.549-0.020 49.122l358.45 372.385-358.43 372.395z",
          "M-0 968.784h464.765v55.216h-464.765v-55.216z"
        ],
        "attrs": [
          {},
          {}
        ],
        "width": 465,
        "isMulticolor": false,
        "isMulticolor2": false,
        "grid": 0,
        "tags": [
          "arrow_next copy"
        ],
        "colorPermutations": {
          "23522923124924619412492471941252251231125425324212552542491": [
            {},
            {}
          ]
        }
      },
      "attrs": [
        {},
        {}
      ],
      "properties": {
        "order": 18,
        "id": 11,
        "name": "arrow_next-copy",
        "prevSize": 32,
        "code": 59651
      },
      "setIdx": 0,
      "setId": 3,
      "iconIdx": 0
    },
    {
      "icon": {
        "paths": [
          "M11.955 953.688c-15.932 16.098-15.932 42.163 0 58.262 15.908 16.075 41.746 16.098 57.678 0l466.164-470.795c15.932-16.098 15.932-42.187 0-58.285l-466.164-470.795c-15.932-16.098-41.746-16.098-57.678 0s-15.932 42.163-0.024 58.262l425.144 441.671-425.12 441.683z"
        ],
        "attrs": [
          {}
        ],
        "width": 548,
        "isMulticolor": false,
        "isMulticolor2": false,
        "grid": 0,
        "tags": [
          "arrow_next_type1 copy"
        ],
        "colorPermutations": {
          "23522923124924619412492471941252251231125425324212552542491": [
            {}
          ]
        }
      },
      "attrs": [
        {}
      ],
      "properties": {
        "order": 19,
        "id": 10,
        "name": "arrow_next_type1-copy",
        "prevSize": 32,
        "code": 59652
      },
      "setIdx": 0,
      "setId": 3,
      "iconIdx": 1
    },
    {
      "icon": {
        "paths": [
          "M451.745 804.081c13.432 13.573 13.432 35.549 0 49.122-13.412 13.553-35.197 13.573-48.63 0l-393.045-396.951c-13.432-13.573-13.432-35.569 0-49.142l393.035-396.941c13.432-13.573 35.197-13.573 48.63 0s13.432 35.559 0.030 49.122l-358.46 372.395 358.44 372.395z",
          "M-0 968.784h464.755v55.216h-464.755v-55.216z"
        ],
        "attrs": [
          {},
          {}
        ],
        "width": 465,
        "isMulticolor": false,
        "isMulticolor2": false,
        "grid": 0,
        "tags": [
          "arrow_prev copy"
        ],
        "colorPermutations": {
          "23522923124924619412492471941252251231125425324212552542491": [
            {},
            {}
          ]
        }
      },
      "attrs": [
        {},
        {}
      ],
      "properties": {
        "order": 20,
        "id": 9,
        "name": "arrow_prev-copy",
        "prevSize": 32,
        "code": 59653
      },
      "setIdx": 0,
      "setId": 3,
      "iconIdx": 2
    },
    {
      "icon": {
        "paths": [
          "M535.796 70.312c15.932-16.098 15.932-42.163 0-58.262-15.908-16.075-41.746-16.098-57.678 0l-466.164 470.807c-15.932 16.098-15.932 42.187 0 58.285l466.164 470.795c15.932 16.098 41.746 16.098 57.678 0s15.932-42.163 0.024-58.262l-425.144-441.683 425.12-441.683z"
        ],
        "attrs": [
          {}
        ],
        "width": 548,
        "isMulticolor": false,
        "isMulticolor2": false,
        "grid": 0,
        "tags": [
          "arrow_prev_type1 copy"
        ],
        "colorPermutations": {
          "23522923124924619412492471941252251231125425324212552542491": [
            {}
          ]
        }
      },
      "attrs": [
        {}
      ],
      "properties": {
        "order": 21,
        "id": 8,
        "name": "arrow_prev_type1-copy",
        "prevSize": 32,
        "code": 59659
      },
      "setIdx": 0,
      "setId": 3,
      "iconIdx": 3
    },
    {
      "icon": {
        "paths": [
          "M477.832 326.769h152.479c14.209 0 25.724 11.333 25.724 25.64v137.078h137.177c14.124 0 25.57 11.375 25.57 25.682v152.62c0 13.9-11.445 25.233-25.57 25.233h-137.177v137.527c0 14.307-11.516 25.64-25.724 25.64h-152.479c-14.054 0-25.5-11.347-25.5-25.64v-137.513h-137.261c-14.096 0-25.542-11.347-25.542-25.233v-152.634c0-14.307 11.445-25.682 25.542-25.682h137.247v-137.078c0.014-14.307 11.459-25.64 25.514-25.64v0zM476.261-0h155.733c33.298 0 63.567 13.437 85.56 35.739v0c21.979 21.853 35.641 52.15 35.641 85.378v37.422h210.534c79.276 0 144.498 65.601 144.498 144.639v576.563c0 79.066-65.208 144.246-144.498 144.246h-819.273c-79.375 0.014-144.456-65.18-144.456-144.232v-576.563c0-79.459 65.278-144.639 144.456-144.639h210.562v-37.422c0-33.228 13.69-63.525 35.641-85.378v0 0c21.895-22.316 52.304-35.753 85.602-35.753v0zM631.981 51.294h-155.719c-19.244 0-36.875 7.995-49.569 20.198v0c-12.68 13.030-20.408 30.703-20.408 49.639v37.422h295.729v-37.422c0-18.935-7.869-36.609-20.548-49.639-12.68-12.624-30.184-20.198-49.485-20.198v0zM963.715 243.902h-819.259c-32.611 0-59.191 26.916-59.191 59.289v576.563c0 32.401 26.79 59.317 59.191 59.317h819.245c32.681 0 59.289-26.93 59.289-59.317v-576.563c0-32.373-26.594-59.289-59.275-59.289v0zM604.826 378.049h-101.466v137.121c0 14.279-11.445 25.654-25.514 25.654h-137.219v101.34h137.219c14.068 0 25.514 11.347 25.514 25.64v137.121h101.466v-137.135c0-14.307 11.445-25.64 25.5-25.64h137.247v-101.34h-137.261c-14.054 0-25.5-11.375-25.5-25.654v-137.107h0.014z"
        ],
        "attrs": [
          {}
        ],
        "width": 1108,
        "isMulticolor": false,
        "isMulticolor2": false,
        "grid": 0,
        "tags": [
          "bag_1 copy"
        ],
        "colorPermutations": {
          "23522923124924619412492471941252251231125425324212552542491": [
            {}
          ]
        }
      },
      "attrs": [
        {}
      ],
      "properties": {
        "order": 22,
        "id": 7,
        "name": "bag_1-copy",
        "prevSize": 32,
        "code": 59660
      },
      "setIdx": 0,
      "setId": 3,
      "iconIdx": 4
    },
    {
      "icon": {
        "paths": [
          "M1.324 450.747c0-126.101 0-252.201 0-378.302 190.853-58.258 383.409-35.056 576.091-12.232 152.266 303.146 114.184 598.158-37.767 888.316-122.255 71.562-255.354 26.418-383.472 34.678-188.962-137.45-70.49-364.494-154.852-532.46z",
          "M1325.191 135.495c0 84.046 0 168.155 0 252.201-97.097 185.683 62.609 433.786-144.133 592.925-128.938-0.567-259.704 31.903-385.3-24.148-217.461-280.259-160.715-579.937-63.113-882.578 202.959-32.66 410.016-103.718 592.547 61.6z",
          "M758.621 73.832c23.013 290.599 46.027 581.135 69.040 871.734 36.758 27.868 34.425 52.080-6.809 72.571-105.042 0-210.147 0-315.188 0-41.172-20.554-44.64-46.216-10.529-77.047 23.455-287.951 46.909-575.965 70.364-863.915-39.469-24.464-38.461-47.036 3.153-67.716 63.050 0 126.101 0 189.151 0 41.928 20.933 42.181 42.37 0.82 64.374z",
          "M1197.767 952.879c76.354-180.765-2.333-396.46 127.425-565.183 0 178.622-11.475 358.252 3.846 535.549 11.16 130.073-67.905 90.036-129.884 94.891-41.928-20.933-42.37-42.685-1.387-65.257z",
          "M1.324 450.747c140.602 142.431 43.189 345.327 127.299 502.133 41.046 22.509 40.667 44.261-1.198 65.257-39.533-25.977-130.829 61.411-127.299-63.050 4.792-168.029 1.198-336.247 1.198-504.339z",
          "M758.621 73.832c-0.252-21.437-0.567-42.937-0.883-64.374 168.092 0 336.31 3.594 504.339-1.198 124.461-3.531 37.137 87.703 63.050 127.299-179.189-108.888-376.726-49.684-566.507-61.726z",
          "M568.651 9.458c-1.072 22.572-2.144 45.144-3.153 67.779-188.079-1.576-376.095-3.153-564.174-4.729 175.469-143.755 380.446-22.068 567.327-63.050z",
          "M127.362 1018.136c0.378-21.752 0.82-43.505 1.198-65.257 122.191-3.972 244.383-7.881 366.574-11.79 3.531 25.661 6.999 51.323 10.529 77.047-126.101 0-252.201 0-378.302 0z",
          "M1197.767 952.879c0.504 21.752 0.883 43.505 1.324 65.257-126.101 0-252.201 0-378.302 0 2.27-24.211 4.54-48.423 6.809-72.571 123.453 2.459 246.779 4.855 370.168 7.314z"
        ],
        "attrs": [
          {
            "fill": "rgb(235, 229, 23)"
          },
          {
            "fill": "rgb(235, 229, 23)"
          },
          {
            "fill": "rgb(255, 254, 249)"
          },
          {
            "fill": "rgb(254, 253, 242)"
          },
          {
            "fill": "rgb(252, 251, 231)"
          },
          {
            "fill": "rgb(249, 246, 194)"
          },
          {
            "fill": "rgb(249, 246, 194)"
          },
          {
            "fill": "rgb(249, 247, 194)"
          },
          {
            "fill": "rgb(249, 247, 194)"
          }
        ],
        "width": 1331,
        "isMulticolor": true,
        "isMulticolor2": false,
        "grid": 0,
        "tags": [
          "double_quotes copy"
        ],
        "colorPermutations": {
          "23522923124924619412492471941252251231125425324212552542491": [
            {
              "f": 0
            },
            {
              "f": 0
            },
            {
              "f": 5
            },
            {
              "f": 4
            },
            {
              "f": 3
            },
            {
              "f": 1
            },
            {
              "f": 1
            },
            {
              "f": 2
            },
            {
              "f": 2
            }
          ]
        }
      },
      "attrs": [
        {
          "fill": "rgb(235, 229, 23)"
        },
        {
          "fill": "rgb(235, 229, 23)"
        },
        {
          "fill": "rgb(255, 254, 249)"
        },
        {
          "fill": "rgb(254, 253, 242)"
        },
        {
          "fill": "rgb(252, 251, 231)"
        },
        {
          "fill": "rgb(249, 246, 194)"
        },
        {
          "fill": "rgb(249, 246, 194)"
        },
        {
          "fill": "rgb(249, 247, 194)"
        },
        {
          "fill": "rgb(249, 247, 194)"
        }
      ],
      "properties": {
        "order": 32,
        "id": 6,
        "name": "double_quotes-copy",
        "prevSize": 32,
        "code": 59661,
        "codes": [
          59661,
          59662,
          59663,
          59664,
          59665,
          59666,
          59667,
          59668,
          59669
        ]
      },
      "setIdx": 0,
      "setId": 3,
      "iconIdx": 5
    },
    {
      "icon": {
        "paths": [
          "M539.473 1011.392l-435.303-435.654c-45.47-45.47-78.263-99.16-93.879-157.612-14.938-55.85-14.169-115.613 5.959-176.688 17.663-52.82 48.512-100.879 88.011-139.439 39.736-38.968 88.768-69.284 142.052-86.179 62.443-19.902 124.174-20.343 181.867-5.19 51.542 13.875 99.714 39.85 142.47 74.927 42.778-35.078 90.928-61.052 142.47-74.486 57.807-15.141 119.413-15.141 181.879 4.749 53.261 16.894 102.293 47.211 142.029 86.179 39.409 38.968 70.268 87.061 87.909 139.881v0h0.215c20.027 60.193 20.671 120.385 5.733 176.247-15.684 58.451-48.376 112.153-93.857 157.612l-2.262 2.182-433.358 433.471c-17.12 16.883-44.723 16.883-61.821-0.441l-0.113 0.441zM622.395 156.583v0l-140.084 139.847c-10.177 10.392-26.857 10.392-37.023 0.441-10.302-10.392-10.392-26.845-0.113-37.226l89.096-89.209-1.628-1.3c-37.554-35.948-80.773-61.493-126.763-73.627-42.213-11.252-87.468-10.81-133.164 3.901-39.94 12.575-76.849 35.078-107.053 64.976-29.989 29.435-53.284 65.372-66.367 104.78-14.406 43.31-14.938 86.179-4.342 126.447 11.579 42.88 36.378 83.159 71.241 118.226l404.455 404.455 404.24-404.466c34.863-35.078 59.752-75.345 71.354-118.226 10.607-39.827 9.951-82.696-4.455-126.447h0.124c-13.106-39.409-36.288-75.345-66.254-104.78-30.204-29.457-67.125-52.401-107.076-64.976-45.696-14.7-90.928-14.7-133.277-3.89-40.37 10.833-78.693 32.058-112.911 61.075v0z"
        ],
        "attrs": [
          {}
        ],
        "width": 1141,
        "isMulticolor": false,
        "isMulticolor2": false,
        "grid": 0,
        "tags": [
          "heart copy"
        ],
        "colorPermutations": {
          "23522923124924619412492471941252251231125425324212552542491": [
            {}
          ]
        }
      },
      "attrs": [
        {}
      ],
      "properties": {
        "order": 25,
        "id": 4,
        "name": "heart-copy",
        "prevSize": 32,
        "code": 59670
      },
      "setIdx": 0,
      "setId": 3,
      "iconIdx": 7
    },
    {
      "icon": {
        "paths": [
          "M855.675 567.729c0-23.361 18.967-42.142 42.306-42.142 23.383 0 42.24 18.781 42.24 42.142v413.735c0 23.339-18.868 42.536-42.24 42.536h-696.904c-23.339 0-42.328-19.197-42.328-42.536v-413.735c0-23.361 18.989-42.142 42.328-42.142 23.262 0 42.339 18.781 42.339 42.142v371.616h135.859v-417.077c0-14.179 11.363-25.443 25.322-25.443h289.743c13.992 0 25.465 11.264 25.465 25.443v417.077h135.848v-371.616h0.022zM430.051 939.355h238.989v-391.645h-238.989v391.645zM72.11 579.409c-16.48 16.666-43.281 16.666-59.75 0-16.48-16.688-16.48-43.369 0-59.64l507.266-507.573c16.458-16.261 43.281-16.261 59.739 0l507.245 507.573c16.578 16.272 16.578 42.952 0 59.64-16.469 16.666-43.237 16.666-59.739 0l-477.342-477.539-477.419 477.539z"
        ],
        "attrs": [
          {}
        ],
        "width": 1099,
        "isMulticolor": false,
        "isMulticolor2": false,
        "grid": 0,
        "tags": [
          "house copy"
        ],
        "colorPermutations": {
          "23522923124924619412492471941252251231125425324212552542491": [
            {}
          ]
        }
      },
      "attrs": [
        {}
      ],
      "properties": {
        "order": 26,
        "id": 3,
        "name": "house-copy",
        "prevSize": 32,
        "code": 59671
      },
      "setIdx": 0,
      "setId": 3,
      "iconIdx": 8
    },
    {
      "icon": {
        "paths": [
          "M994.044 948.759l-222.34-222.249c66.681-77.060 107.051-177.443 107.051-287.089-0.078-242.283-197.225-439.421-439.377-439.421-242.24 0.074-439.29 197.22-439.377 439.556 0.087 242.153 197.138 439.207 439.29 439.207 100.972 0 194.072-34.23 268.349-91.661l224.058 223.967c8.617 8.631 19.908 12.931 31.177 12.931s22.551-4.3 31.164-12.931c17.209-17.2 17.209-45.093 0.004-62.311zM88.15 439.556c0.083-193.701 157.609-351.319 351.223-351.402 193.614 0 351.14 157.622 351.249 351.319 0 193.61-157.635 351.144-351.332 351.144-193.614-0.004-351.057-157.539-351.14-351.061z"
        ],
        "attrs": [
          {}
        ],
        "width": 1007,
        "isMulticolor": false,
        "isMulticolor2": false,
        "grid": 0,
        "tags": [
          "magnifier copy"
        ],
        "colorPermutations": {
          "23522923124924619412492471941252251231125425324212552542491": [
            {}
          ]
        }
      },
      "attrs": [
        {}
      ],
      "properties": {
        "order": 27,
        "id": 2,
        "name": "magnifier-copy",
        "prevSize": 32,
        "code": 59672
      },
      "setIdx": 0,
      "setId": 3,
      "iconIdx": 9
    },
    {
      "icon": {
        "paths": [
          "M528.986 185.579c73.728 0 134.63 60.901 134.63 134.621 0 73.746-60.696 134.63-134.63 134.63-73.84 0-134.621-60.884-134.621-134.63 0-74.131 60.67-134.621 134.621-134.621v0zM236.528 449.867c-17.696-39.765-27.537-83.68-27.537-129.667 0-88.644 35.829-168.584 93.726-226.593 57.872-57.581 137.924-93.607 226.268-93.607 88.327 0 168.388 36.026 226.277 93.607 57.881 58.009 93.726 137.958 93.726 226.593 0 45.986-9.841 89.893-27.563 129.667h111.44c13.041 0 23.712 9.516 25.055 22.36l99.622 521.935c2.482 13.255-6.521 26.51-20.092 29.017-1.549 0.402-3.098 0.821-4.647 0.821v0h-1007.639c-13.871 0-25.167-11.595-25.167-25.252 0-2.507 0.205-4.578 0.821-6.632l99.528-521.952c2.276-11.997 12.844-20.289 24.645-20.289l111.534-0.009zM264.698 500.405h-118.884l-90.312 473.056h946.951l-90.312-473.056h-118.884l-5.691 7.855c-36.856 50.539-88.318 89.901-147.97 111.851l-77.374 101.077c-13.982 18.637-40.27 21.958-58.599 7.855-3.123-2.473-5.699-4.963-7.975-7.855l-77.254-101.077c-59.652-21.949-111.123-61.312-147.996-111.851l-5.699-7.855zM695.825 153.284c-42.683-42.683-101.693-69.193-166.839-69.193-65.137 0-124.173 26.51-166.941 69.193-42.657 42.657-69.082 101.899-69.082 166.924 0 52.207 16.669 99.828 44.959 138.771 28.992 39.765 70.306 70.417 118.251 85.751 8.181 2.482 15.651 7.445 21.136 14.915l51.677 67.097 51.685-67.097h0.094c4.963-6.623 11.912-12.023 20.409-14.504 48.262-15.737 89.782-46.397 118.773-86.162 28.376-38.944 45.053-86.573 45.053-138.771-0.009-65.026-26.407-124.267-69.176-166.924v0zM528.986 235.707c-46.594 0-84.296 38.105-84.296 84.502s38.105 84.091 84.296 84.091c46.491 0 84.296-37.694 84.296-84.091s-38.011-84.502-84.296-84.502v0z"
        ],
        "attrs": [
          {}
        ],
        "width": 1058,
        "isMulticolor": false,
        "isMulticolor2": false,
        "grid": 0,
        "tags": [
          "map copy"
        ],
        "colorPermutations": {
          "23522923124924619412492471941252251231125425324212552542491": [
            {}
          ]
        }
      },
      "attrs": [
        {}
      ],
      "properties": {
        "order": 28,
        "id": 1,
        "name": "map-copy",
        "prevSize": 32,
        "code": 59673
      },
      "setIdx": 0,
      "setId": 3,
      "iconIdx": 10
    },
    {
      "icon": {
        "paths": [
          "M1242.834 725.399c33.704 0 60.959 27.071 60.959 60.789 0 33.704-27.255 61.441-60.959 61.441-33.718 0-60.959-27.737-60.959-61.441 0-33.718 27.241-60.789 60.959-60.789v0zM73.29 423.821h744.519v-350.39h-744.519v350.39zM817.822 496.629h-744.533v107.759h744.519v-107.759h0.014zM36.709 0h817.681c20.31 0 36.723 16.852 36.723 36.709v604.416c0 19.871-16.413 36.099-36.723 36.099h-817.681c-20.31 0-36.709-16.228-36.709-36.099v-604.416c0-19.857 16.413-36.709 36.709-36.709v0zM1349.516 135.453c25.88 0 48.005 16.242 56.891 39.146l174.727 349.143c4.38 8.405 6.321 17.476 6.321 27.071h0.312v235.374c0 33.704-27.255 61.441-60.959 61.441h-54.014c-10.843 40.918-32.513 77.641-61.71 107.149l-3.77 3.628c-42.902 40.918-100.857 65.594-164.494 65.594-65.466 0-125.050-26.49-168.094-69.222h-0.184c-29.197-29.509-50.868-66.231-61.71-107.149h-358.469c-10.97 40.918-32.641 77.641-61.838 107.149-43.044 42.732-102.486 69.222-168.264 69.222-65.608 0-125.234-26.49-168.278-69.222-29.197-29.509-50.868-66.231-61.71-107.149h-78.236c-33.576 0-61.087-27.737-61.087-61.441v0c0-33.080 27.51-60.789 61.087-60.789h131.386c33.576 0 60.959 27.071 60.959 60.789 0 32.513 12.968 61.441 34.016 82.488 20.934 20.48 49.989 33.718 81.879 33.718 32.074 0 60.959-13.238 81.879-33.718 20.622-21.047 33.704-49.351 34.016-80.674v-1.814c0-33.718 27.383-60.789 61.087-60.789h351.141v-528.547c0-33.704 27.383-61.398 61.101-61.398 111.94 0 224.064 0 336.018 0v0zM1074.428 455.087h336.486l-98.716-197.419h-237.77v197.419zM1447.637 527.952h-373.209v198.099c29.636 4.195 52.498 29.452 52.498 60.151 0 32.513 12.968 61.441 34.016 82.488v0c20.792 20.48 49.805 33.718 81.879 33.718 31.011 0 59.003-12.047 79.611-31.323l2.254-2.395c20.622-21.047 33.534-49.351 34.016-80.674v-1.828c0-33.718 27.383-60.789 60.959-60.789h46.049v-160.753l-18.071-36.694zM424.261 725.399c33.704 0 60.959 27.071 60.959 60.789 0 33.704-27.255 61.441-60.959 61.441-33.576 0-60.959-27.737-60.959-61.441 0-33.718 27.383-60.789 60.959-60.789v0z"
        ],
        "attrs": [
          {}
        ],
        "width": 1588,
        "isMulticolor": false,
        "isMulticolor2": false,
        "grid": 0,
        "tags": [
          "truck copy"
        ],
        "colorPermutations": {
          "23522923124924619412492471941252251231125425324212552542491": [
            {}
          ]
        }
      },
      "attrs": [
        {}
      ],
      "properties": {
        "order": 29,
        "id": 0,
        "name": "truck-copy",
        "prevSize": 32,
        "code": 59674
      },
      "setIdx": 0,
      "setId": 3,
      "iconIdx": 11
    },
    {
      "icon": {
        "paths": [
          "M1024 512.288c0-8.544-3.52-16.704-9.376-22.848l-316.768-319.968c-12.512-12.64-32.768-12.608-45.248 0-12.512 12.608-12.512 33.088 0 45.696l262.176 264.8h-882.784c-17.664 0-32 14.464-32 32.32s14.336 32.32 32 32.32h882.752l-262.144 264.8c-12.512 12.608-12.48 33.088 0 45.696 12.512 12.608 32.768 12.608 45.248 0l316.768-319.968c5.984-6.048 9.28-14.368 9.376-22.848z"
        ],
        "attrs": [
          {}
        ],
        "isMulticolor": false,
        "isMulticolor2": false,
        "grid": 0,
        "tags": [
          "icon_back"
        ]
      },
      "attrs": [
        {}
      ],
      "properties": {
        "order": 36,
        "id": 10,
        "name": "icon_back",
        "prevSize": 32,
        "code": 59648
      },
      "setIdx": 1,
      "setId": 2,
      "iconIdx": 0
    },
    {
      "icon": {
        "paths": [
          "M0 157.538h1004.308v78.769h-1004.308v-78.769z",
          "M0 467.692h1004.308v78.769h-1004.308v-78.769z",
          "M0 777.846h1004.308v78.769h-1004.308v-78.769z"
        ],
        "attrs": [
          {},
          {},
          {}
        ],
        "isMulticolor": false,
        "isMulticolor2": false,
        "grid": 0,
        "tags": [
          "icon_menu"
        ]
      },
      "attrs": [
        {},
        {},
        {}
      ],
      "properties": {
        "order": 35,
        "id": 9,
        "name": "icon_menu",
        "prevSize": 32,
        "code": 59649
      },
      "setIdx": 1,
      "setId": 2,
      "iconIdx": 1
    },
    {
      "icon": {
        "paths": [
          "M914.286 708.571q0 15.429-5.714 40.286t-12 39.143q-12 28.571-69.714 60.571-53.714 29.143-106.286 29.143-15.429 0-30-2t-32.857-7.143-27.143-8.286-31.714-11.714-28-10.286q-56-20-100-47.429-73.143-45.143-151.143-123.143t-123.143-151.143q-27.429-44-47.429-100-1.714-5.143-10.286-28t-11.714-31.714-8.286-27.143-7.143-32.857-2-30q0-52.571 29.143-106.286 32-57.714 60.571-69.714 14.286-6.286 39.143-12t40.286-5.714q8 0 12 1.714 10.286 3.429 30.286 43.429 6.286 10.857 17.143 30.857t20 36.286 17.714 30.571q1.714 2.286 10 14.286t12.286 20.286 4 16.286q0 11.429-16.286 28.571t-35.429 31.429-35.429 30.286-16.286 26.286q0 5.143 2.857 12.857t4.857 11.714 8 13.714 6.571 10.857q43.429 78.286 99.429 134.286t134.286 99.429q1.143 0.571 10.857 6.571t13.714 8 11.714 4.857 12.857 2.857q10.286 0 26.286-16.286t30.286-35.429 31.429-35.429 28.571-16.286q8 0 16.286 4t20.286 12.286 14.286 10q14.286 8.571 30.571 17.714t36.286 20 30.857 17.143q40 20 43.429 30.286 1.714 4 1.714 12z"
        ],
        "attrs": [
          {}
        ],
        "isMulticolor": false,
        "isMulticolor2": false,
        "grid": 0,
        "tags": [
          "icon_phone"
        ]
      },
      "attrs": [
        {}
      ],
      "properties": {
        "order": 33,
        "id": 8,
        "name": "icon_phone",
        "prevSize": 32,
        "code": 59650
      },
      "setIdx": 1,
      "setId": 2,
      "iconIdx": 2
    },
    {
      "icon": {
        "paths": [
          "M605.556 384.465h192.256v192.209h-192.256v448.535h-192.233v-448.535h-192.233v-192.209h192.233v-80.407c0-76.172 23.971-172.428 71.657-225.047 47.639-52.736 107.194-79.011 178.502-79.011h134.307v192.233h-134.516c-31.907 0-57.693 25.74-57.693 57.6v134.633z"
        ],
        "attrs": [
          {}
        ],
        "isMulticolor": false,
        "isMulticolor2": false,
        "grid": 0,
        "tags": [
          "icon_social_fb"
        ]
      },
      "attrs": [
        {}
      ],
      "properties": {
        "order": 37,
        "id": 4,
        "name": "icon_social_fb",
        "prevSize": 32,
        "code": 59654
      },
      "setIdx": 1,
      "setId": 2,
      "iconIdx": 6
    },
    {
      "icon": {
        "paths": [
          "M746.662 1024h-469.324c-152.941 0-277.338-124.397-277.338-277.338v-469.347c0-152.895 124.397-277.315 277.338-277.315h469.324c152.918 0 277.315 124.421 277.315 277.315v469.347c-0 152.941-124.397 277.338-277.315 277.338zM277.338 85.329c-105.87 0-192.009 86.139-192.009 191.986v469.347c0 105.846 86.139 192.009 192.009 192.009h469.324c105.87 0 192.009-86.162 192.009-192.009v-469.347c0-105.87-86.139-191.986-192.009-191.986h-469.324z",
          "M511.977 767.988c-141.144 0-255.965-114.867-255.965-255.988 0-141.167 114.844-255.988 255.965-255.988 141.167 0 255.988 114.844 255.988 255.988 0.023 141.121-114.821 255.988-255.988 255.988zM511.977 341.318c-94.073 0-170.659 76.563-170.659 170.659s76.586 170.659 170.659 170.659c94.096 0 170.682-76.563 170.682-170.659s-76.563-170.659-170.682-170.659z",
          "M842.655 240.005c0 32.397-26.263 58.66-58.66 58.66s-58.66-26.263-58.66-58.66c0-32.397 26.263-58.66 58.66-58.66s58.66 26.263 58.66 58.66z"
        ],
        "attrs": [
          {},
          {},
          {}
        ],
        "isMulticolor": false,
        "isMulticolor2": false,
        "grid": 0,
        "tags": [
          "icon_social_ig"
        ]
      },
      "attrs": [
        {},
        {},
        {}
      ],
      "properties": {
        "order": 43,
        "id": 3,
        "name": "icon_social_ig",
        "prevSize": 32,
        "code": 59655
      },
      "setIdx": 1,
      "setId": 2,
      "iconIdx": 7
    },
    {
      "icon": {
        "paths": [
          "M135.889 648.25h-107.506c-15.648 0-28.369-12.98-28.369-28.932v-219.15c-0.014-15.951 12.706-28.917 28.369-28.917 15.634 0 28.355 12.966 28.355 28.917v190.233h79.151c15.634 0 28.369 12.98 28.369 28.917-0 15.951-12.735 28.932-28.369 28.932zM247.101 619.318c0 15.937-12.735 28.932-28.384 28.932-15.62 0-28.355-12.98-28.355-28.932v-219.15c0-15.951 12.735-28.917 28.355-28.917 15.648 0 28.384 12.966 28.384 28.917v219.15zM505.914 619.318c0 12.49-7.788 23.494-19.398 27.446-2.928 0.981-5.957 1.486-9 1.486-8.855 0-17.336-4.356-22.672-11.596l-110.217-152.908v135.572c0 15.937-12.706 28.932-28.369 28.932-15.634 0-28.369-12.98-28.369-28.932v-219.15c0-12.475 7.803-23.494 19.398-27.432 2.913-0.981 5.957-1.5 9-1.5 8.884 0 17.336 4.312 22.672 11.581l110.231 152.922v-135.572c0-15.951 12.706-28.917 28.355-28.917s28.384 12.966 28.384 28.917v219.15zM682.619 480.833c15.648 0 28.369 12.98 28.369 28.903 0 15.951-12.721 28.932-28.369 28.932h-79.151v51.748h79.151c15.634 0 28.369 12.98 28.369 28.917s-12.735 28.932-28.369 28.932h-107.534c-15.62 0-28.369-12.98-28.369-28.932v-109.525c0-0.043 0-109.554 0-109.554 0-0.029 0-0.058 0-0.087 0-15.951 12.706-28.917 28.369-28.917h107.534c15.648 0 28.369 12.966 28.369 28.917 0 15.937-12.721 28.917-28.369 28.917h-79.151v51.748h79.151z",
          "M879.082 651.711c-78.415 0-141.961-63.531-141.99-141.961v0c0.029-78.43 63.589-141.975 141.99-141.975v0c78.415 0 141.961 63.546 141.975 141.975v0 19.615c-0.014 29.638-24.014 53.609-53.652 53.637v0c-29.609-0.014-53.609-23.999-53.609-53.637v0-19.615c-0.058-19.168-15.562-34.686-34.715-34.715v0c-19.168 0.029-34.686 15.547-34.715 34.715v0c0.029 19.168 15.547 34.672 34.715 34.715v0c2.423 0 4.774-0.26 7.009-0.721v0c10.413-2.12 20.595 4.586 22.744 15.014v0c2.12 10.442-4.586 20.61-15.014 22.744v0c-4.788 0.981-9.721 1.5-14.74 1.5v0c-40.484-0.014-73.223-32.782-73.252-73.252v0c0.029-40.455 32.768-73.252 73.252-73.252v0c40.47 0 73.238 32.797 73.238 73.252v0 19.615c0.014 8.322 6.764 15.086 15.086 15.1v0c8.336-0.014 15.1-6.779 15.115-15.1v0-19.615c-0.101-57.128-46.325-103.337-103.438-103.438v0c-57.128 0.115-103.323 46.311-103.453 103.438v0c0.13 57.128 46.325 103.337 103.453 103.438v0c14.076 0 27.388-2.784 39.59-7.846v0 0c9.836-4.082 21.1 0.591 25.182 10.427v0c4.082 9.836-0.591 21.086-10.427 25.153v0c-16.73 6.952-35.133 10.788-54.315 10.788v0c-0 0-0.014 0-0.029 0v0z"
        ],
        "attrs": [
          {},
          {}
        ],
        "isMulticolor": false,
        "isMulticolor2": false,
        "grid": 0,
        "tags": [
          "icon_social_line"
        ]
      },
      "attrs": [
        {},
        {}
      ],
      "properties": {
        "order": 41,
        "id": 2,
        "name": "icon_social_line",
        "prevSize": 32,
        "code": 59656
      },
      "setIdx": 1,
      "setId": 2,
      "iconIdx": 8
    },
    {
      "icon": {
        "paths": [
          "M783.428 370.324h-54.909v-30.174c-10.012 11.082-20.594 19.615-31.585 25.372-10.9 5.825-21.527 8.761-31.812 8.761-12.811 0-22.278-4.119-28.672-12.22-6.394-8.146-9.671-20.321-9.671-36.636v-228.329h54.795v209.488c0 6.44 1.297 11.127 3.573 14.017 2.253 2.913 6.053 4.369 11.15 4.369 4.005 0 9.102-1.911 15.292-5.757 6.144-3.823 11.856-8.738 16.907-14.7v-207.417h54.909v273.226h0.023z",
          "M560.515 110.046c-14.564-13.221-33.2-19.888-55.933-19.888-24.895 0-44.828 6.281-59.551 18.819-14.814 12.538-22.232 29.377-22.164 50.608v141.608c0 23.233 7.236 41.688 21.595 55.455 14.45 13.699 33.701 20.571 57.685 20.571 25.008 0 44.51-6.667 58.846-19.934 14.177-13.312 21.299-31.63 21.299-54.977v-141.175c-0.068-20.799-7.305-37.865-21.777-51.086zM526.268 306.404c0 7.259-2.185 13.016-6.554 17.271-4.415 4.164-10.286 6.235-17.681 6.235-7.305 0-12.902-2.025-16.748-6.144-3.891-4.164-5.916-9.921-5.916-17.385v-148.844c0-5.962 2.139-10.832 6.303-14.495 4.21-3.686 9.648-5.484 16.361-5.484 7.191 0 13.062 1.82 17.522 5.484 4.483 3.686 6.713 8.533 6.713 14.495v148.867z",
          "M273.294 0h-62.259l73.569 223.619v146.705h61.85v-153.646l71.93-216.678h-62.874l-38.184 148.002h-3.891z",
          "M783.588 707.971c-7.714 0-13.335 2.185-16.725 6.849-3.368 4.346-5.029 11.833-5.029 22.232v25.077h43.099v-25.077c0-10.399-1.752-17.863-5.188-22.232-3.254-4.665-8.761-6.849-16.156-6.849z",
          "M615.47 707.129c-3.504 0-6.986 0.751-10.331 2.389-3.391 1.593-6.781 4.164-10.058 7.555v154.578c3.937 3.959 7.828 7.031 11.605 8.738 3.8 1.752 7.646 2.662 11.81 2.662 5.985 0 10.331-1.707 13.107-5.257 2.776-3.459 4.278-9.057 4.278-17.067v-128.137c0-8.306-1.775-14.7-5.211-19.024-3.504-4.324-8.624-6.44-15.201-6.44z",
          "M886.488 514.844c-40.050-40.027-377.583-40.573-377.583-40.505 0 0-337.488 0.523-377.628 40.505-40.164 40.095-40.255 237.932-40.255 239.024 0 1.479 0.046 198.975 40.255 239.070 40.141 39.982 377.628 40.846 377.628 40.846s337.465-0.91 377.583-40.846c40.346-40.209 40.664-239.070 40.664-239.070 0-1.092-0.478-198.929-40.664-239.024zM348.433 631.467h-56.843v287.289h-55.023v-287.289h-56.843v-48.833h168.71v48.833zM509.065 918.756h-48.674v-27.238c-9.057 10.081-18.386 17.749-28.194 22.983-9.762 5.325-19.206 7.919-28.308 7.919-11.31 0-19.684-3.641-25.486-11.105-5.598-7.396-8.533-18.386-8.533-33.2v-207.394h48.742v190.236c0 5.916 1.024 10.103 2.981 12.789 2.139 2.662 5.507 3.959 10.035 3.959 3.573 0 8.146-1.707 13.653-5.279 5.484-3.504 10.513-7.896 15.155-13.266v-188.416h48.674v248.013zM686.012 867.578c0 17.545-3.8 30.993-11.492 40.368-7.555 9.421-18.705 13.995-33.155 13.995-9.603 0-18.068-1.752-25.463-5.37-7.464-3.618-14.518-9.102-20.844-16.794v19.046h-49.289v-336.191h49.289v108.271c6.599-7.509 13.562-13.335 20.89-17.203 7.464-4.005 14.928-5.939 22.482-5.939 15.474 0 27.238 5.279 35.385 15.792 8.169 10.536 12.197 26.055 12.197 46.376v137.648zM855.108 800.791h-93.298v46.649c0 13.062 1.593 22.141 4.756 27.193 3.3 5.074 8.761 7.509 16.543 7.509 8.078 0 13.744-2.139 16.953-6.394 3.186-4.278 4.892-13.653 4.892-28.308v-11.287h50.108v12.743c0 25.441-6.030 44.555-18.341 57.526-12.151 12.811-30.424 19.206-54.682 19.206-21.823 0-39.094-6.781-51.61-20.434-12.493-13.517-18.887-32.29-18.887-56.229v-111.388c0-21.436 6.986-39.026 20.753-52.588s31.562-20.321 53.43-20.321c22.3 0 39.458 6.281 51.473 18.819 11.947 12.538 17.909 30.561 17.909 54.067v63.238z"
        ],
        "attrs": [
          {},
          {},
          {},
          {},
          {},
          {}
        ],
        "isMulticolor": false,
        "isMulticolor2": false,
        "grid": 0,
        "tags": [
          "icon_social_youtube"
        ]
      },
      "attrs": [
        {},
        {},
        {},
        {},
        {},
        {}
      ],
      "properties": {
        "order": 42,
        "id": 1,
        "name": "icon_social_youtube",
        "prevSize": 32,
        "code": 59657
      },
      "setIdx": 1,
      "setId": 2,
      "iconIdx": 9
    },
    {
      "icon": {
        "paths": [
          "M597.2 507.773c-1.977 3.817 23.623-19.839 130.344-51.074 42.247-12.343 67.124-16.417 110.899-21.022l43.857-49.617c-78.273 9.473-115.362 19.456-184.616 48.166-32.023 13.263-86.142 45.784-100.483 73.547z",
          "M599.774 485.918c-15.924 14.024-25.896 31.185-16.855 40.927 19.949 21.477 271.24 2.7 380.895 2.043l57.738-54.053c-116.095 11.083-123.143 16.225-202.161 23.557-90.002 8.285-218.566 28.447-231.314 15.020-4.463-4.676 5.804-18.695 11.697-27.495z",
          "M612.308 470.564c41.776-32.812 68.181-48.615 116.736-70.103 41.721-18.344 66.719-26.367 111.413-35.424l53.757-63.86c-59.819 14.626-105.412 29.274-163.67 65.859-51.934 32.571-79.067 56.342-118.236 103.528z",
          "M96.481 369.954c2.847 0 7.058-0.115 12.633-0.345 5.591-0.214 9.807-0.35 12.644-0.35 11.527 0 20.321 0.268 26.361 0.739 13.591 1.117 24.395 3.346 32.396 6.768 8.022 3.384 14.522 8.663 19.527 15.858 7.655 10.996 11.521 23.727 11.521 38.2 0 5.876-0.504 11.439-1.468 16.751-4.95 27.040-18.448 49.064-40.511 66.012-17.923 13.832-39.816 20.726-65.667 20.726-17.337 0-30.331-0.115-38.972-0.367-1.21-0.219-3.198-0.378-5.969-0.378-4.644 0-11.713 0.274-21.11 0.75 7.037-31.383 12.671-59.463 16.943-84.22 1.292-6.763 2.826-14.938 4.611-24.45 0.372-1.993 1.966-13.728 4.802-35.199 0.438-3.379 1.303-10.437 2.628-21.186 13.29 0.444 23.169 0.69 29.63 0.69zM95.714 520.148c11.85 0 21.789-1.489 29.756-4.446 8.214-3.072 16.012-8.876 23.41-17.359 11.357-13.12 18.772-30.233 22.216-51.277 1.035-6.21 1.539-11.259 1.539-15.125 0-13.695-2.847-24.603-8.548-32.691-7.628-10.853-22.013-16.302-43.123-16.302 1.38 0-4.468 0.4-17.539 1.117-6.013 28.36-13.553 68.548-22.676 120.525-0.246 1.369-0.597 3.543-1.068 6.538l-1.479 8.657c4.003 0.263 9.84 0.361 17.512 0.361z",
          "M286.983 401.616c-2.344 10.421-5.602 26.093-9.851 47.044-0.975 5.503-2.322 14.599-4.085 27.232l-3.357 22.807c-0.832 7.94-2.333 19.828-4.441 35.615-12.343-0.75-18.514-1.084-18.58-1.084-7.518 0-14.78 0.34-21.849 1.084 6.462-24.439 12.764-54.004 18.941-88.666 0.345-2.349 1.057-6.653 2.163-12.929 0.482-2.672 1.254-7.124 2.278-13.411 0.652-3.696 1.637-9.468 2.962-17.375 1.681-11.894 2.919-22.769 3.702-32.669 9.369 1.008 15.913 1.5 19.659 1.5 3.625 0 10.158-0.493 19.659-1.5-3.636 15.272-6.045 26.065-7.201 32.352z",
          "M394.716 404.787c-0.953 4.978-2.333 11.987-4.074 20.995-1.741 8.707-4.216 21.718-7.42 39.147l-2.886 17.737c-0.975 5.799-1.719 10.152-2.267 13.049-1.079 8.559-2.952 21.438-5.602 38.583-10.662-0.734-17.079-1.068-19.264-1.068-2.043 0-5.35 0.164-9.917 0.449l-10.032 0.635c0.783-3.855 2.043-9.43 3.795-16.647 0.794-3.313 1.988-9.172 3.614-17.49l15.935-81.969c1.347-7.332 2.941-17.556 4.813-30.682-7.486 0-14.643 0.241-21.455 0.75-5.273 0.323-13.175 1.172-23.733 2.508 2.289-4.939 3.636-11.089 4.074-18.552 0-0.706-0.137-1.687-0.361-2.968 4.95 0.296 10.985 0.548 18.109 0.734 21.624 0.652 36.212 0.953 43.84 0.953h24.801c4.184 0 10.415-0.263 18.739-0.827 8.329-0.564 14.588-0.86 18.761-0.86-1.402 4.288-2.278 7.508-2.628 9.692-0.75 4.578-1.079 8.51-1.079 11.828-13.991-2.185-28.020-3.258-42.044-3.258l-3.718 17.26z",
          "M488.64 369.954c3.379 0 8.46-0.115 15.207-0.345 6.757-0.214 11.85-0.35 15.229-0.35 12.376 0 21.006 0.531 25.874 1.528 17.83 3.773 26.717 14.637 26.717 32.615 0 2.218-0.246 4.698-0.717 7.442-2.579 14.823-9.024 26.662-19.292 35.561-8.751 7.584-20.858 12.649-36.322 15.179-6.396 0.192-15.924 0.712-28.601 1.55-1.029 6.516-2.749 17.616-5.142 33.316-2.108 13.969-3.817 26.575-5.164 37.866-13.411-0.75-19.976-1.084-19.752-1.084-2.043 0-5.361 0.164-9.955 0.449l-10.065 0.635c0.684-2.787 1.67-6.976 3.006-12.595 1.604-6.319 3.735-15.108 6.33-26.361 0.986-5.958 3.061-18.213 6.27-36.749 0.854-4.649 1.988-11.417 3.444-20.255l4.008-23.935c1.391-8.734 2.503-15.519 3.368-20.272 1.528-9.008 2.623-17.277 3.275-24.888 4.945 0.449 12.37 0.695 22.282 0.695zM496.202 411.905c-0.794 3.811-2.043 10.623-3.773 20.458-0.619 3.861-1.752 9.638-3.422 17.37 8.148-0.52 13.58-1.161 16.291-1.785 14.32-3.658 23.125-14.533 26.361-32.697 0.75-4.063 1.090-7.54 1.090-10.426 0-7.382-2.322-13.307-7.026-17.758-2.897-2.722-10.771-4.069-23.634-4.069l-5.887 28.907z",
          "M46.715 656.86l5.755-32.604c0.75-4.222-0.164-7.557-2.738-9.977-2.377-2.19-5.755-3.307-10.13-3.307-6.73 0-12.222 2.442-16.494 7.316l-6.801 38.572h-3.652l6.993-39.662c5.7-6.56 12.578-9.868 20.622-9.868 5.251 0 9.402 1.353 12.419 4.025 3.307 2.853 4.512 6.768 3.636 11.784l-5.936 33.715h-3.674z",
          "M97.882 642.015c-0.865 4.95-3.51 8.887-7.924 11.795-3.948 2.672-8.608 4.025-13.969 4.025-5.273 0-9.468-1.353-12.556-4.025-3.368-2.908-4.633-6.845-3.756-11.795h3.658c-0.706 3.893 0.361 6.927 3.121 9.117 2.404 2.032 5.799 3.056 10.18 3.056 4.222 0 7.924-1.024 11.111-3.056 3.647-2.256 5.81-5.312 6.494-9.117 0.909-5.18-3.422-8.723-12.983-10.596-2.984-0.548-5.465-1.101-7.447-1.643-1.96-0.52-3.472-1.029-4.529-1.511-3.724-1.867-5.284-4.501-4.682-7.918 0.63-3.647 2.962-6.763 7.004-9.375 3.735-2.256 7.935-3.401 12.644-3.401 4.693 0 8.619 1.057 11.735 3.176 3.39 2.36 5.104 5.553 5.115 9.599h-3.899c-0.268-2.99-1.851-5.29-4.737-6.933-2.415-1.457-5.366-2.174-8.844-2.174-3.346 0-6.566 0.799-9.692 2.42-3.121 1.626-4.906 3.696-5.35 6.21-0.405 2.273 0.986 4.091 4.14 5.476 0.761 0.334 1.955 0.674 3.592 1.040 1.637 0.345 3.746 0.816 6.319 1.385 11.428 2.344 16.51 7.113 15.256 14.243z",
          "M135.206 653.197c-3.767 3.028-8.214 4.518-13.328 4.518-3.165 0-6.182-0.728-9.046-2.13-2.875-1.429-4.89-3.286-6.024-5.542l-1.21 6.812h-3.647l8.586-48.681h3.636l-5.7 32.374c-0.652 3.735 0.482 6.943 3.412 9.61 3.039 2.607 6.577 3.893 10.629 3.893 4.14 0 7.699-1.139 10.705-3.417 2.984-2.256 4.802-5.268 5.476-8.997l5.903-33.463h3.636l-5.892 33.463c-0.789 4.622-3.176 8.493-7.135 11.56z",
          "M183.356 656.86l3.477-19.719c-0.794-2.837-2.568-5.164-5.284-6.987-2.716-1.818-6.024-2.738-9.917-2.738-5.115 0-9.38 1.451-12.825 4.364-3.433 2.935-5.531 6.505-6.275 10.727-0.515 2.99-0.044 5.646 1.424 7.885 1.457 2.294 3.57 3.417 6.33 3.417 2.503 0 4.682-0.564 6.494-1.703l1.692 2.919c-2.639 1.621-5.585 2.42-8.833 2.42-3.893 0-6.856-1.533-8.898-4.616-1.938-2.842-2.557-6.292-1.84-10.333 0.887-5.032 3.433-9.424 7.666-13.142 4.315-3.74 9.539-5.596 15.7-5.596 6.911 0 12.124 2.344 15.678 7.058l1.303-7.436c0.652-3.625-0.449-6.686-3.253-9.106-2.623-2.19-5.991-3.307-10.13-3.307-3.422 0-6.719 0.909-9.906 2.689-3.187 1.785-5.509 4.014-6.96 6.686h-3.893c1.829-3.893 4.77-6.998 8.833-9.375 4.238-2.42 8.559-3.641 12.918-3.641 3.088 0 6.095 0.69 9.024 2.070l4.857-4.857 2.541 2.185-4.561 4.507c3.658 3.171 5.049 7.206 4.173 12.146l-5.903 33.474h-3.631z",
          "M193.016 602.117l1.917-10.957h3.658l-1.928 10.957z",
          "M236.933 632.405c-1.358 7.792-4.665 13.816-9.884 18.136-5.219 4.293-11.724 6.434-19.5 6.434-0.821 0-1.583-0.033-2.311-0.060-0.717-0.038-1.484-0.099-2.278-0.175l-3.242-47.805 3.784-0.86 3.072 45.39c6.823 0.4 12.666-1.254 17.55-4.945 4.857-3.68 7.902-9.052 9.167-16.105 1.155-6.56 0.345-11.658-2.426-15.278-2.771-3.592-7.36-5.405-13.767-5.405h-1.457c-0.493 0-1.035 0.055-1.593 0.126l0.63-3.669c0.575-0.082 1.166-0.115 1.719-0.115h1.714c7.628 0 13.005 2.147 16.127 6.456 3.154 4.277 4.052 10.251 2.694 17.873z",
          "M240.536 656.86l8.586-48.681h3.625l-8.575 48.681z",
          "M289.080 656.86l3.477-19.719c-0.799-2.837-2.546-5.164-5.284-6.987-2.716-1.818-6.024-2.738-9.917-2.738-5.115 0-9.391 1.451-12.814 4.364-3.444 2.935-5.531 6.505-6.275 10.727-0.526 2.99-0.066 5.646 1.413 7.885 1.468 2.294 3.57 3.417 6.319 3.417 2.524 0 4.693-0.564 6.511-1.703l1.681 2.919c-2.639 1.621-5.585 2.42-8.833 2.42-3.882 0-6.856-1.533-8.909-4.616-1.928-2.842-2.546-6.292-1.818-10.333 0.876-5.032 3.433-9.424 7.666-13.142 4.299-3.74 9.528-5.596 15.689-5.596 6.9 0 12.129 2.344 15.667 7.058l1.314-7.436c0.652-3.625-0.438-6.686-3.253-9.106-2.623-2.19-6.002-3.307-10.13-3.307-3.401 0-6.708 0.909-9.895 2.689-3.198 1.785-5.52 4.014-6.96 6.686h-3.904c1.829-3.893 4.759-6.998 8.822-9.375 4.233-2.42 8.564-3.641 12.94-3.641 3.083 0 6.084 0.69 9.008 2.070l4.879-4.857 2.535 2.185-4.578 4.507c3.669 3.171 5.060 7.206 4.195 12.146l-5.903 33.474h-3.641z",
          "M340.247 642.015c-0.887 4.95-3.521 8.887-7.913 11.795-3.981 2.672-8.641 4.025-13.98 4.025-5.284 0-9.479-1.353-12.556-4.025-3.379-2.908-4.633-6.845-3.767-11.795h3.647c-0.684 3.893 0.367 6.927 3.149 9.117 2.388 2.032 5.799 3.056 10.18 3.056 4.195 0 7.902-1.024 11.1-3.056 3.647-2.256 5.81-5.312 6.494-9.117 0.898-5.18-3.422-8.723-12.994-10.596-2.973-0.548-5.454-1.101-7.431-1.643-1.966-0.52-3.488-1.029-4.534-1.511-3.724-1.867-5.295-4.501-4.693-7.918 0.652-3.647 2.984-6.763 7.004-9.375 3.724-2.256 7.957-3.401 12.655-3.401s8.608 1.057 11.735 3.176c3.395 2.36 5.115 5.553 5.115 9.599h-3.904c-0.268-2.99-1.84-5.29-4.715-6.933-2.415-1.457-5.377-2.174-8.866-2.174-3.324 0-6.555 0.799-9.681 2.42-3.121 1.626-4.901 3.696-5.355 6.21-0.411 2.273 0.98 4.091 4.156 5.476 0.75 0.334 1.938 0.674 3.581 1.040 1.637 0.345 3.746 0.816 6.308 1.385 11.439 2.344 16.515 7.113 15.267 14.243z",
          "M310.162 602.117l0.641-3.647h35.281l-0.641 3.647z",
          "M377.56 653.197c-3.773 3.028-8.214 4.518-13.317 4.518-3.165 0-6.193-0.728-9.068-2.13-2.864-1.429-4.879-3.286-6.024-5.542l-1.199 6.812h-3.647l8.586-48.681h3.647l-5.7 32.374c-0.663 3.735 0.471 6.943 3.401 9.61 3.028 2.607 6.566 3.893 10.629 3.893 4.14 0 7.699-1.139 10.705-3.417 2.984-2.256 4.813-5.268 5.476-8.997l5.903-33.463h3.647l-5.903 33.463c-0.805 4.622-3.176 8.493-7.135 11.56z",
          "M424.61 656.86l5.744-32.604c0.761-4.222-0.17-7.557-2.738-9.977-2.366-2.19-5.744-3.307-10.13-3.307-6.735 0-12.222 2.442-16.494 7.316l-6.801 38.572h-3.658l7.004-39.662c5.7-6.56 12.567-9.868 20.6-9.868 5.273 0 9.413 1.353 12.43 4.025 3.313 2.853 4.523 6.768 3.625 11.784l-5.925 33.715h-3.658z",
          "M456.611 656.86l5.531-31.394c0.821-4.638 0.323-8.236-1.484-10.826-1.829-2.601-4.928-3.893-9.293-3.893-3.904 0-7.228 0.975-10.010 2.913l0.663-3.778c3.466-1.703 6.823-2.552 10.076-2.552 5.52 0 9.506 1.665 12.009 4.994 2.141 3.006 2.771 7.004 1.895 12.047l-5.733 32.489h-3.652z",
          "M507.778 642.015c-0.876 4.95-3.532 8.887-7.924 11.795-3.97 2.672-8.619 4.025-13.969 4.025-5.284 0-9.457-1.353-12.556-4.025-3.379-2.908-4.644-6.845-3.767-11.795h3.647c-0.684 3.893 0.361 6.927 3.143 9.117 2.398 2.032 5.788 3.056 10.158 3.056 4.222 0 7.924-1.024 11.133-3.056 3.636-2.256 5.799-5.312 6.473-9.117 0.909-5.18-3.412-8.723-12.972-10.596-2.984-0.548-5.465-1.101-7.431-1.643-1.988-0.52-3.499-1.029-4.545-1.511-3.724-1.867-5.295-4.501-4.682-7.918 0.652-3.647 2.973-6.763 7.004-9.375 3.724-2.256 7.935-3.401 12.644-3.401s8.608 1.057 11.735 3.176c3.401 2.36 5.115 5.553 5.125 9.599h-3.904c-0.279-2.99-1.862-5.29-4.737-6.933-2.415-1.457-5.366-2.174-8.855-2.174-3.324 0-6.544 0.799-9.692 2.42-3.11 1.626-4.89 3.696-5.339 6.21-0.405 2.273 0.975 4.091 4.14 5.476 0.75 0.334 1.944 0.674 3.592 1.040 1.637 0.345 3.756 0.816 6.33 1.385 11.406 2.344 16.499 7.113 15.25 14.243z",
          "M545.912 656.86l5.892-33.474c0.323-1.856 0.214-3.527-0.334-5.032-0.537-1.495-1.413-2.804-2.59-3.882-1.177-1.123-2.639-1.955-4.375-2.568-1.703-0.619-3.625-0.931-5.722-0.931-2.032 0-4.030 0.312-6.013 0.931-1.977 0.608-3.735 1.446-5.306 2.568-1.572 1.079-2.897 2.388-3.97 3.882-1.079 1.506-1.785 3.176-2.125 5.032l-1.205 6.949h15.327l-0.652 3.641h-15.327l-4.030 22.889h-3.658l5.903-33.474c0.821-4.687 3.368-8.548 7.639-11.532 4.255-2.995 8.931-4.518 14.051-4.518 5.104 0 9.26 1.522 12.458 4.518 3.209 2.99 4.397 6.845 3.57 11.532l-5.903 33.474h-3.631z",
          "M547.281 602.117l0.405-2.311c0.301-1.719-0.323-2.557-1.862-2.557h-1.325l0.63-3.669h2.201c3.401 0 4.879 1.303 4.419 3.893l-0.17 0.997h15.327l-0.641 3.647h-18.985z",
          "M577.903 656.86l5.542-31.394c0.799-4.638 0.323-8.236-1.495-10.826-1.829-2.601-4.906-3.893-9.293-3.893-3.882 0-7.217 0.975-9.999 2.913l0.663-3.778c3.455-1.703 6.812-2.552 10.065-2.552 5.509 0 9.517 1.665 12.020 4.994 2.13 3.006 2.771 7.004 1.884 12.047l-5.722 32.489h-3.663z",
          "M629.070 642.015c-0.876 4.95-3.51 8.887-7.924 11.795-3.97 2.672-8.614 4.025-13.958 4.025-5.295 0-9.468-1.353-12.578-4.025-3.368-2.908-4.622-6.845-3.746-11.795h3.647c-0.695 3.893 0.361 6.927 3.132 9.117 2.398 2.032 5.799 3.056 10.169 3.056 4.222 0 7.924-1.024 11.122-3.056 3.636-2.256 5.799-5.312 6.484-9.117 0.909-5.18-3.412-8.723-12.962-10.596-3.006-0.548-5.487-1.101-7.453-1.643-1.977-0.52-3.488-1.029-4.534-1.511-3.735-1.867-5.295-4.501-4.693-7.918 0.641-3.647 2.973-6.763 7.015-9.375 3.713-2.256 7.935-3.401 12.644-3.401 4.682 0 8.608 1.057 11.724 3.176 3.39 2.36 5.093 5.553 5.125 9.599h-3.893c-0.29-2.99-1.862-5.29-4.737-6.933-2.426-1.457-5.366-2.174-8.855-2.174-3.324 0-6.555 0.799-9.692 2.42-3.11 1.626-4.895 3.696-5.339 6.21-0.416 2.273 0.975 4.091 4.14 5.476 0.75 0.334 1.944 0.674 3.581 1.040 1.648 0.345 3.756 0.816 6.341 1.385 11.423 2.344 16.494 7.113 15.24 14.243z",
          "M632.383 650.771l1.21-6.818h3.636l-0.559 3.286h7.891l-0.619 3.537h-11.56zM637.623 621.086l1.188-6.812h3.669l-0.575 3.28h7.891l-0.597 3.537h-11.576z",
          "M682.428 656.86l4.216-23.974c0.586-3.401-0.334-6.21-2.782-8.406-2.366-2.245-5.443-3.39-9.26-3.39-0.394 0-0.821 0.011-1.221 0.060-0.422 0.044-0.821 0.11-1.254 0.186l-16.745 9.347-4.605 26.175h-3.658l8.575-48.681h3.669l-3.253 18.383 33.414-18.383 2.459 1.955-14.194 8.033c4.375 0.471 7.732 1.999 10.098 4.556 2.344 2.552 3.143 5.903 2.415 10.048l-4.255 24.083h-3.62z",
          "M734.394 632.525c-1.221 6.96-3.97 12.847-8.214 17.638-4.545 5.032-9.966 7.551-16.302 7.551-2.032 0-3.992-0.34-5.859-0.98-1.862-0.652-3.499-1.572-4.917-2.798-1.402-1.216-2.546-2.65-3.444-4.315-0.865-1.676-1.38-3.466-1.517-5.421h3.756c0.526 3.006 1.977 5.399 4.353 7.168 2.344 1.802 5.115 2.689 8.269 2.689 5.208 0 9.692-2.229 13.476-6.681 3.466-3.981 5.711-8.931 6.746-14.851 1.046-5.914 0.548-10.875-1.506-14.851-2.212-4.457-5.925-6.708-11.111-6.708-3.088 0-6.128 0.931-9.112 2.76-3.017 1.818-5.295 4.195-6.856 7.097h-3.904c0.821-1.938 1.988-3.751 3.455-5.394 1.468-1.659 3.11-3.105 4.95-4.326 1.851-1.227 3.806-2.147 5.925-2.798 2.097-0.63 4.151-0.98 6.182-0.98 6.341 0 10.875 2.519 13.635 7.557 2.574 4.709 3.225 10.58 1.993 17.643z",
          "M734.301 602.117l1.911-10.957h3.658l-1.922 10.957z",
          "M756.632 656.86l5.531-31.394c0.821-4.638 0.323-8.236-1.484-10.826-1.807-2.601-4.917-3.893-9.293-3.893-3.904 0-7.228 0.975-9.999 2.913l0.663-3.778c3.466-1.703 6.812-2.552 10.065-2.552 5.509 0 9.506 1.665 12.009 4.994 2.152 3.006 2.782 7.004 1.884 12.047l-5.722 32.489h-3.652z",
          "M810.225 632.405c-1.391 7.792-4.682 13.816-9.906 18.136-5.219 4.293-11.735 6.434-19.511 6.434-0.799 0-1.572-0.033-2.289-0.060-0.728-0.038-1.495-0.099-2.289-0.175l-3.253-47.805 3.795-0.86 3.072 45.39c6.834 0.4 12.671-1.254 17.55-4.945 4.868-3.68 7.924-9.052 9.156-16.105 1.166-6.56 0.35-11.658-2.404-15.278-2.771-3.592-7.371-5.405-13.777-5.405h-1.457c-0.482 0-1.019 0.055-1.604 0.126l0.652-3.669c0.569-0.082 1.144-0.115 1.719-0.115h1.692c7.639 0 13.005 2.147 16.149 6.456 3.143 4.277 4.030 10.251 2.705 17.873z",
          "M845.359 653.197c-4.266 3.028-8.953 4.518-14.051 4.518-5.115 0-9.271-1.489-12.48-4.518-3.187-2.995-4.386-6.845-3.548-11.549l5.903-33.463h3.658l-5.914 33.463c-0.323 1.867-0.214 3.548 0.334 5.043 0.537 1.511 1.413 2.809 2.601 3.899 1.177 1.095 2.65 1.955 4.408 2.568 1.763 0.613 3.658 0.904 5.689 0.904 2.108 0 4.129-0.29 6.051-0.904 1.944-0.608 3.691-1.473 5.251-2.568 1.572-1.090 2.902-2.388 3.981-3.899 1.068-1.489 1.774-3.176 2.119-5.043l8.044-45.62h3.647l-8.055 45.62c-0.838 4.704-3.373 8.553-7.639 11.549z",
          "M897.818 642.015c-0.876 4.95-3.51 8.887-7.913 11.795-3.97 2.672-8.619 4.025-13.969 4.025-5.273 0-9.468-1.353-12.556-4.025-3.379-2.908-4.633-6.845-3.767-11.795h3.647c-0.684 3.893 0.361 6.927 3.132 9.117 2.404 2.032 5.81 3.056 10.169 3.056 4.222 0 7.935-1.024 11.122-3.056 3.647-2.256 5.821-5.312 6.484-9.117 0.92-5.18-3.412-8.723-12.972-10.596-2.984-0.548-5.465-1.101-7.431-1.643-1.977-0.52-3.499-1.029-4.545-1.511-3.735-1.867-5.295-4.501-4.693-7.918 0.652-3.647 2.995-6.763 7.004-9.375 3.735-2.256 7.957-3.401 12.666-3.401 4.693 0 8.597 1.057 11.724 3.176 3.39 2.36 5.115 5.553 5.115 9.599h-3.893c-0.29-2.99-1.862-5.29-4.748-6.933-2.398-1.457-5.366-2.174-8.844-2.174-3.313 0-6.555 0.799-9.681 2.42-3.121 1.626-4.906 3.696-5.35 6.21-0.394 2.273 0.975 4.091 4.14 5.476 0.761 0.334 1.955 0.674 3.592 1.040 1.626 0.345 3.746 0.816 6.319 1.385 11.423 2.344 16.521 7.113 15.25 14.243z",
          "M901.142 650.771l1.199-6.818h3.647l-0.575 3.286h7.902l-0.619 3.537h-11.554zM906.382 621.086l1.188-6.812h3.647l-0.575 3.28h7.913l-0.608 3.537h-11.565z",
          "M917.104 656.86l8.575-48.681h3.647l-8.57 48.681z",
          "M962.116 656.86l5.679-32.242c0.739-4.145 0.055-7.442-2.021-9.933-2.075-2.453-5.164-3.713-9.326-3.713-3.97 0-7.924 1.32-11.861 3.915-4.14 2.749-6.544 5.941-7.179 9.594l-5.711 32.379h-3.647l8.575-48.681h3.647l-1.188 6.818c1.928-2.256 4.611-4.123 8.011-5.547 3.422-1.402 6.757-2.125 9.999-2.125 2.513 0 4.77 0.389 6.801 1.166 1.999 0.767 3.647 1.867 4.95 3.28 1.292 1.429 2.168 3.138 2.672 5.175 0.493 2.032 0.526 4.255 0.099 6.697l-5.859 33.212h-3.641z",
          "M1008.355 656.86l5.892-33.474c0.334-1.856 0.225-3.527-0.334-5.032-0.537-1.495-1.413-2.804-2.59-3.882-1.188-1.123-2.639-1.955-4.364-2.568-1.703-0.619-3.625-0.931-5.733-0.931-2.021 0-4.030 0.312-5.996 0.931-1.982 0.608-3.762 1.446-5.323 2.568-1.583 1.079-2.891 2.388-3.97 3.882-1.079 1.506-1.785 3.176-2.108 5.032l-1.221 6.949h15.316l-0.641 3.641h-15.327l-4.041 22.889h-3.647l5.903-33.474c0.81-4.687 3.379-8.548 7.639-11.532 4.266-2.995 8.942-4.518 14.062-4.518 3.165 0 6.106 0.69 8.876 2.070l4.983-4.857 2.546 2.185-4.567 4.507c3.658 3.171 5.049 7.206 4.184 12.146l-5.914 33.474h-3.625z",
          "M28.513 724.74l4.802-27.292c0.619-3.527-0.137-6.314-2.3-8.345-1.977-1.823-4.802-2.749-8.471-2.749-5.635 0-10.235 2.021-13.799 6.1l-5.684 32.286h-3.061l5.837-33.201c4.77-5.492 10.514-8.241 17.238-8.241 4.419 0 7.891 1.117 10.415 3.335 2.76 2.398 3.773 5.679 3.028 9.911l-4.956 28.196h-3.050z",
          "M71.324 712.321c-0.739 4.14-2.941 7.42-6.631 9.868-3.324 2.262-7.206 3.362-11.702 3.362-4.397 0-7.913-1.101-10.503-3.362-2.826-2.442-3.871-5.728-3.143-9.868h3.050c-0.569 3.264 0.301 5.815 2.628 7.623 2.021 1.719 4.846 2.557 8.515 2.557 3.532 0 6.631-0.832 9.304-2.557 3.061-1.889 4.868-4.436 5.41-7.623 0.772-4.337-2.847-7.294-10.853-8.86-2.492-0.476-4.567-0.942-6.226-1.385-1.648-0.427-2.919-0.86-3.784-1.259-3.121-1.561-4.43-3.773-3.926-6.62 0.537-3.061 2.492-5.668 5.859-7.842 3.11-1.906 6.653-2.853 10.58-2.853 3.948 0 7.217 0.887 9.818 2.65 2.858 1.966 4.277 4.655 4.277 8.044h-3.247c-0.235-2.513-1.561-4.441-3.981-5.821-2.010-1.199-4.49-1.829-7.403-1.829-2.782 0-5.487 0.706-8.099 2.053-2.623 1.347-4.118 3.083-4.479 5.191-0.334 1.9 0.81 3.406 3.477 4.572 0.619 0.279 1.626 0.553 2.995 0.876 1.38 0.29 3.132 0.69 5.284 1.166 9.566 1.982 13.821 5.925 12.781 11.916z",
          "M74.095 719.642l1.008-5.689h3.050l-0.471 2.738h6.609l-0.515 2.952h-9.681zM78.481 694.809l1.008-5.711h3.061l-0.493 2.76h6.62l-0.515 2.952h-9.681z",
          "M114.951 724.74l4.748-26.98c0.613-3.466 0.055-6.237-1.692-8.318-1.73-2.059-4.342-3.094-7.809-3.094-3.324 0-6.631 1.079-9.933 3.247-3.444 2.327-5.454 5-6.002 8.050l-4.78 27.095h-3.050l7.184-40.73h3.056l-1.002 5.7c1.621-1.9 3.866-3.45 6.724-4.649 2.847-1.183 5.635-1.763 8.362-1.763 2.097 0 3.992 0.323 5.668 0.969 1.692 0.646 3.072 1.544 4.162 2.738 1.068 1.183 1.829 2.623 2.245 4.337 0.405 1.681 0.427 3.565 0.077 5.591l-4.906 27.801h-3.050z",
          "M157.778 712.321c-0.739 4.14-2.952 7.42-6.631 9.868-3.324 2.262-7.217 3.362-11.691 3.362-4.419 0-7.913-1.101-10.503-3.362-2.847-2.442-3.882-5.728-3.154-9.868h3.050c-0.569 3.264 0.301 5.815 2.628 7.623 2.010 1.719 4.846 2.557 8.515 2.557 3.532 0 6.631-0.832 9.315-2.557 3.028-1.889 4.846-4.436 5.41-7.623 0.761-4.337-2.864-7.294-10.864-8.86-2.503-0.476-4.567-0.942-6.215-1.385-1.659-0.427-2.93-0.86-3.806-1.259-3.121-1.561-4.43-3.773-3.915-6.62 0.537-3.061 2.492-5.668 5.859-7.842 3.121-1.906 6.653-2.853 10.58-2.853 3.937 0 7.206 0.887 9.818 2.65 2.837 1.966 4.277 4.655 4.288 8.044h-3.264c-0.235-2.513-1.55-4.441-3.97-5.821-2.021-1.199-4.49-1.829-7.414-1.829-2.782 0-5.487 0.706-8.104 2.053-2.612 1.347-4.107 3.083-4.468 5.191-0.345 1.9 0.81 3.406 3.455 4.572 0.63 0.279 1.648 0.553 3.006 0.876 1.391 0.29 3.143 0.69 5.306 1.166 9.561 1.982 13.816 5.925 12.77 11.916z",
          "M195.014 704.359c-1.035 5.859-3.335 10.782-6.878 14.785-3.806 4.206-8.351 6.308-13.635 6.308-1.719 0-3.335-0.274-4.906-0.81-1.572-0.564-2.941-1.331-4.118-2.349-1.188-1.024-2.141-2.223-2.875-3.609-0.739-1.402-1.166-2.902-1.27-4.54h3.143c0.438 2.513 1.648 4.518 3.614 6.013 1.999 1.5 4.299 2.223 6.943 2.223 4.353 0 8.104-1.851 11.275-5.591 2.897-3.324 4.791-7.458 5.646-12.43 0.876-4.928 0.46-9.068-1.254-12.408-1.862-3.751-4.961-5.602-9.304-5.602-2.59 0-5.136 0.761-7.639 2.294s-4.408 3.505-5.744 5.952h-3.253c0.695-1.637 1.659-3.132 2.897-4.534 1.221-1.385 2.607-2.601 4.129-3.614 1.55-1.008 3.198-1.785 4.961-2.344 1.752-0.548 3.488-0.799 5.175-0.799 5.295 0 9.090 2.097 11.412 6.292 2.152 3.943 2.722 8.86 1.681 14.763z",
          "M231.681 704.266c-1.134 6.511-3.893 11.576-8.269 15.174-4.375 3.603-9.807 5.405-16.329 5.405-0.674 0-1.314-0.022-1.928-0.044-0.597-0.060-1.232-0.099-1.906-0.153l-2.716-40.029 3.187-0.717 2.557 37.992c5.711 0.345 10.601-1.040 14.686-4.129 4.074-3.088 6.631-7.59 7.666-13.498 0.975-5.498 0.301-9.769-2.021-12.77-2.322-3.017-6.171-4.54-11.521-4.54h-1.232c-0.405 0-0.854 0.055-1.336 0.104l0.548-3.039c0.471-0.082 0.953-0.115 1.435-0.115h1.435c6.374 0 10.875 1.802 13.509 5.399 2.617 3.609 3.368 8.592 2.234 14.96z",
          "M268.398 724.74h-2.645l-5.027-35.643-17.386 35.643h-2.535l-3.51-40.725h2.962l2.875 35.626 17.178-35.626h2.749l4.813 35.626 15.24-35.626h2.962z",
          "M299.156 724.74l4.633-26.284c0.674-3.861 0.257-6.878-1.254-9.057-1.517-2.152-4.118-3.253-7.787-3.253-3.253 0-6.045 0.805-8.362 2.448l0.548-3.154c2.897-1.429 5.7-2.141 8.417-2.141 4.633 0 7.978 1.396 10.065 4.162 1.807 2.513 2.322 5.876 1.583 10.092l-4.791 27.188h-3.050z",
          "M364.309 724.74l1.019-5.706c-3.691 4.277-8.302 6.423-13.86 6.423-4.085 0-7.168-1.232-9.282-3.669-2.119-2.431-2.815-5.711-2.097-9.785l2.568-14.555c0.63-3.527-0.148-6.314-2.3-8.345-1.977-1.823-4.813-2.749-8.471-2.749-5.635 0-10.235 2.021-13.805 6.1l-5.153 29.241h6.106l-0.526 3.050h-9.178l5.848-33.201c4.78-5.492 10.525-8.241 17.238-8.241 4.419 0 7.88 1.117 10.404 3.335 2.771 2.398 3.784 5.679 3.050 9.911l-2.738 15.453c-0.569 3.247-0.044 5.815 1.561 7.644 1.604 1.851 4.041 2.738 7.305 2.738 3.121 0 6.237-1.073 9.336-3.236 3.039-2.24 4.835-4.934 5.372-8.050l4.791-27.084h3.056l-7.19 40.73h-3.056z",
          "M345.926 678.923l0.537-3.061h29.526l-0.542 3.061z",
          "M407.251 708.756c-0.865 4.885-3.083 8.822-6.664 11.812-3.735 3.045-8.493 4.655-14.287 4.786-4.419 0.066-8.28-0.613-11.549-2.043l6.933-39.295h3.050l-6.511 36.946c2.47 1.029 5.366 1.495 8.707 1.418 4.704-0.066 8.581-1.303 11.614-3.746 3.050-2.459 4.928-5.75 5.668-9.884 0.706-4.074 0.022-7.513-2.064-10.3-2.19-2.645-5.262-4.408-9.249-5.284l11.987-9.681 1.818 1.829-8.449 6.933c7.382 3.121 10.388 8.641 8.997 16.51z",
          "M425.809 725.353c-5.421 0-9.506-1.292-12.244-3.861-2.568-2.382-3.51-5.52-2.826-9.391 0.515-2.908 2.010-5.531 4.534-7.842 2.021-1.884 4.151-3.154 6.363-3.762-2.141-0.131-3.882-0.942-5.164-2.393-1.303-1.451-1.774-3.307-1.369-5.564 0.214-1.27 0.717-2.492 1.495-3.614 0.783-1.117 1.741-2.086 2.897-2.886 1.166-0.81 2.481-1.446 3.959-1.906 1.468-0.433 3.017-0.657 4.655-0.657 2.021 0 3.68 0.252 4.961 0.723l-0.548 3.067c-1.27-0.487-2.897-0.734-4.857-0.734-2.311 0-4.364 0.569-6.149 1.632-1.774 1.095-2.847 2.541-3.176 4.381-0.35 2.043 0.383 3.647 2.223 4.78 1.659 1.029 3.702 1.539 6.149 1.539h3.756l-0.526 3.072h-2.853c-2.847 0-5.564 0.909-8.126 2.738-2.782 1.895-4.43 4.337-4.95 7.321-0.548 3.056 0.312 5.547 2.552 7.425 2.251 1.917 5.514 2.864 9.78 2.864 5.027 0 9.473-1.528 13.35-4.6l5.936-33.677h3.050l-6.193 35.128c-4.266 4.14-9.813 6.215-16.68 6.215z",
          "M449.821 675.26c-2.097 0-3.297 0.739-3.548 2.223l-0.257 1.44h-3.050l0.301-1.752c0.548-3.028 2.404-4.567 5.591-4.567h4.375l-0.471 2.656h-2.941z"
        ],
        "attrs": [
          {},
          {},
          {},
          {},
          {},
          {},
          {},
          {},
          {},
          {},
          {},
          {},
          {},
          {},
          {},
          {},
          {},
          {},
          {},
          {},
          {},
          {},
          {},
          {},
          {},
          {},
          {},
          {},
          {},
          {},
          {},
          {},
          {},
          {},
          {},
          {},
          {},
          {},
          {},
          {},
          {},
          {},
          {},
          {},
          {},
          {},
          {},
          {},
          {},
          {},
          {}
        ],
        "isMulticolor": false,
        "isMulticolor2": false,
        "grid": 0,
        "tags": [
          "logo_DITP"
        ]
      },
      "attrs": [
        {},
        {},
        {},
        {},
        {},
        {},
        {},
        {},
        {},
        {},
        {},
        {},
        {},
        {},
        {},
        {},
        {},
        {},
        {},
        {},
        {},
        {},
        {},
        {},
        {},
        {},
        {},
        {},
        {},
        {},
        {},
        {},
        {},
        {},
        {},
        {},
        {},
        {},
        {},
        {},
        {},
        {},
        {},
        {},
        {},
        {},
        {},
        {},
        {},
        {},
        {}
      ],
      "properties": {
        "order": 16,
        "id": 0,
        "name": "logo_DITP",
        "prevSize": 32,
        "code": 59658
      },
      "setIdx": 1,
      "setId": 2,
      "iconIdx": 10
    },
    {
      "icon": {
        "paths": [
          "M325.8 457.4v111.8h184.8c-7.4 48-55.8 140.6-184.8 140.6-111.2 0-202-92.2-202-205.8s90.8-205.8 202-205.8c63.4 0 105.6 27 129.8 50.2l88.4-85.2c-56.8-53-130.4-85.2-218.2-85.2-180.2 0.2-325.8 145.8-325.8 326s145.6 325.8 325.8 325.8c188 0 312.8-132.2 312.8-318.4 0-21.4-2.4-37.8-5.2-54h-307.6z",
          "M1024 448h-96v-96h-96v96h-96v96h96v96h96v-96h96z"
        ],
        "tags": [
          "google-plus",
          "brand",
          "social"
        ],
        "defaultCode": 60043,
        "grid": 16,
        "attrs": []
      },
      "attrs": [],
      "properties": {
        "ligatures": "google-plus, brand5",
        "name": "google-plus",
        "order": 49,
        "id": 396,
        "prevSize": 32,
        "code": 60043
      },
      "setIdx": 2,
      "setId": 1,
      "iconIdx": 395
    },
    {
      "icon": {
        "paths": [
          "M438 640l-184.6 320h580.6l184.6-320z",
          "M992.4 576l-295.6-512h-369.6l295.6 512z",
          "M290.2 128l-290.2 502.8 184.8 320 290.2-502.8z"
        ],
        "tags": [
          "google-drive",
          "brand"
        ],
        "defaultCode": 60047,
        "grid": 16,
        "attrs": []
      },
      "attrs": [],
      "properties": {
        "ligatures": "google-drive, brand9",
        "name": "google-drive",
        "order": 48,
        "id": 400,
        "prevSize": 32,
        "code": 60047
      },
      "setIdx": 2,
      "setId": 1,
      "iconIdx": 399
    },
    {
      "icon": {
        "paths": [
          "M512 92.2c136.8 0 153 0.6 206.8 3 50 2.2 77 10.6 95 17.6 23.8 9.2 41 20.4 58.8 38.2 18 18 29 35 38.4 58.8 7 18 15.4 45.2 17.6 95 2.4 54 3 70.2 3 206.8s-0.6 153-3 206.8c-2.2 50-10.6 77-17.6 95-9.2 23.8-20.4 41-38.2 58.8-18 18-35 29-58.8 38.4-18 7-45.2 15.4-95 17.6-54 2.4-70.2 3-206.8 3s-153-0.6-206.8-3c-50-2.2-77-10.6-95-17.6-23.8-9.2-41-20.4-58.8-38.2-18-18-29-35-38.4-58.8-7-18-15.4-45.2-17.6-95-2.4-54-3-70.2-3-206.8s0.6-153 3-206.8c2.2-50 10.6-77 17.6-95 9.2-23.8 20.4-41 38.2-58.8 18-18 35-29 58.8-38.4 18-7 45.2-15.4 95-17.6 53.8-2.4 70-3 206.8-3zM512 0c-139 0-156.4 0.6-211 3-54.4 2.4-91.8 11.2-124.2 23.8-33.8 13.2-62.4 30.6-90.8 59.2-28.6 28.4-46 57-59.2 90.6-12.6 32.6-21.4 69.8-23.8 124.2-2.4 54.8-3 72.2-3 211.2s0.6 156.4 3 211c2.4 54.4 11.2 91.8 23.8 124.2 13.2 33.8 30.6 62.4 59.2 90.8 28.4 28.4 57 46 90.6 59 32.6 12.6 69.8 21.4 124.2 23.8 54.6 2.4 72 3 211 3s156.4-0.6 211-3c54.4-2.4 91.8-11.2 124.2-23.8 33.6-13 62.2-30.6 90.6-59s46-57 59-90.6c12.6-32.6 21.4-69.8 23.8-124.2 2.4-54.6 3-72 3-211s-0.6-156.4-3-211c-2.4-54.4-11.2-91.8-23.8-124.2-12.6-34-30-62.6-58.6-91-28.4-28.4-57-46-90.6-59-32.6-12.6-69.8-21.4-124.2-23.8-54.8-2.6-72.2-3.2-211.2-3.2v0z",
          "M512 249c-145.2 0-263 117.8-263 263s117.8 263 263 263 263-117.8 263-263c0-145.2-117.8-263-263-263zM512 682.6c-94.2 0-170.6-76.4-170.6-170.6s76.4-170.6 170.6-170.6c94.2 0 170.6 76.4 170.6 170.6s-76.4 170.6-170.6 170.6z",
          "M846.8 238.6c0 33.91-27.49 61.4-61.4 61.4s-61.4-27.49-61.4-61.4c0-33.91 27.49-61.4 61.4-61.4s61.4 27.49 61.4 61.4z"
        ],
        "tags": [
          "instagram",
          "brand",
          "social"
        ],
        "defaultCode": 60050,
        "grid": 16,
        "attrs": []
      },
      "attrs": [],
      "properties": {
        "ligatures": "instagram, brand12",
        "name": "instagram",
        "order": 45,
        "id": 403,
        "prevSize": 32,
        "code": 60050
      },
      "setIdx": 2,
      "setId": 1,
      "iconIdx": 402
    },
    {
      "icon": {
        "paths": [
          "M873 148.8c-95.8-96-223.2-148.8-359-148.8-279.6 0-507.2 227.6-507.2 507.4 0 89.4 23.4 176.8 67.8 253.6l-72 263 269-70.6c74.2 40.4 157.6 61.8 242.4 61.8h0.2c0 0 0 0 0 0 279.6 0 507.4-227.6 507.4-507.4 0-135.6-52.8-263-148.6-359zM514.2 929.6v0c-75.8 0-150-20.4-214.8-58.8l-15.4-9.2-159.6 41.8 42.6-155.6-10-16c-42.4-67-64.6-144.6-64.6-224.4 0-232.6 189.2-421.8 422-421.8 112.6 0 218.6 44 298.2 123.6 79.6 79.8 123.4 185.6 123.4 298.4-0.2 232.8-189.4 422-421.8 422zM745.4 613.6c-12.6-6.4-75-37-86.6-41.2s-20-6.4-28.6 6.4c-8.4 12.6-32.8 41.2-40.2 49.8-7.4 8.4-14.8 9.6-27.4 3.2s-53.6-19.8-102-63c-37.6-33.6-63.2-75.2-70.6-87.8s-0.8-19.6 5.6-25.8c5.8-5.6 12.6-14.8 19-22.2s8.4-12.6 12.6-21.2c4.2-8.4 2.2-15.8-1-22.2s-28.6-68.8-39-94.2c-10.2-24.8-20.8-21.4-28.6-21.8-7.4-0.4-15.8-0.4-24.2-0.4s-22.2 3.2-33.8 15.8c-11.6 12.6-44.4 43.4-44.4 105.8s45.4 122.6 51.8 131.2c6.4 8.4 89.4 136.6 216.6 191.4 30.2 13 53.8 20.8 72.2 26.8 30.4 9.6 58 8.2 79.8 5 24.4-3.6 75-30.6 85.6-60.2s10.6-55 7.4-60.2c-3-5.6-11.4-8.8-24.2-15.2z"
        ],
        "tags": [
          "whatsapp",
          "brand",
          "social"
        ],
        "defaultCode": 60051,
        "grid": 16,
        "attrs": []
      },
      "attrs": [],
      "properties": {
        "name": "whatsapp",
        "ligatures": "whatsapp, brand13",
        "order": 46,
        "id": 404,
        "prevSize": 32,
        "code": 60051
      },
      "setIdx": 2,
      "setId": 1,
      "iconIdx": 403
    },
    {
      "icon": {
        "paths": [
          "M1024 226.4c-37.6 16.8-78.2 28-120.6 33 43.4-26 76.6-67.2 92.4-116.2-40.6 24-85.6 41.6-133.4 51-38.4-40.8-93-66.2-153.4-66.2-116 0-210 94-210 210 0 16.4 1.8 32.4 5.4 47.8-174.6-8.8-329.4-92.4-433-219.6-18 31-28.4 67.2-28.4 105.6 0 72.8 37 137.2 93.4 174.8-34.4-1-66.8-10.6-95.2-26.2 0 0.8 0 1.8 0 2.6 0 101.8 72.4 186.8 168.6 206-17.6 4.8-36.2 7.4-55.4 7.4-13.6 0-26.6-1.4-39.6-3.8 26.8 83.4 104.4 144.2 196.2 146-72 56.4-162.4 90-261 90-17 0-33.6-1-50.2-3 93.2 59.8 203.6 94.4 322.2 94.4 386.4 0 597.8-320.2 597.8-597.8 0-9.2-0.2-18.2-0.6-27.2 41-29.4 76.6-66.4 104.8-108.6z"
        ],
        "tags": [
          "twitter",
          "brand",
          "tweet",
          "social"
        ],
        "defaultCode": 60054,
        "grid": 16,
        "attrs": []
      },
      "attrs": [],
      "properties": {
        "ligatures": "twitter, brand16",
        "name": "twitter",
        "order": 47,
        "id": 407,
        "prevSize": 32,
        "code": 60054
      },
      "setIdx": 2,
      "setId": 1,
      "iconIdx": 406
    },
    {
      "icon": {
        "width": 2569,
        "paths": [
          "M344.012 169.399c0.209-0.865 0.344-1.479 0.388-1.8l1.042-7.559-47.349-0.267c-42.779-0.242-55.87 0.007-57.047 1.084-0.565 0.516-15.333 56.633-41.655 158.273-12.556 48.484-23.124 87.206-23.487 86.051s-15.391-56.498-33.397-122.98c-18.006-66.482-33.104-121.243-33.55-121.692-0.623-0.623-57.98-0.9-104.417-0.502-6.735 0.056-10.477-13.11 60.021 211.133 9.759 31.041 24.371 74.997 32.469 97.679 9.333 26.141 15.989 46.323 20.534 63.173 8.038 32.067 8.319 52.163 6.565 75.625-2.026 27.101-2.321 218.438-0.342 221.638 1.512 2.449 91.223 3.589 99.712 1.268 1.358-0.372 2.265-1.691 2.87-8.928 2.119-6.219 2.286-30.969 2.286-133.744v-131.281l5.742-18.112c3.756-11.849 13.201-42.995 20.989-69.22 7.789-26.222 17.21-57.619 20.938-69.771 33.834-110.319 66.14-218.831 66.994-225.011l0.693-5.056z",
          "M846.122 328.651l-0.021 6.838-1.065 0.014-0.595 188.993-0.577 183.227-14.666 14.929c-16.424 16.719-29.585 23.101-41.488 20.113-12.963-3.254-12.64 1.8-13.722-214.768l-0.998-199.347h-94.316v6.851h-1.086v216.289c0 231.737-0.007 231.599 11.752 254.875 9.366 18.536 23.010 27.559 46.391 30.671h0.002c30.79 4.1 64.001-9.849 94.77-39.809l13.373-13.022v22.445c0 19.396 0.554 22.601 4.070 23.58 5.756 1.605 77.173 1.707 84.89 0.126l6.396-1.314v-6.628l1.086-0.223v-495.098l-94.195 1.258z",
          "M606.892 426.33c-8.935-38.341-25.68-64.115-53.233-81.939-43.281-27.999-92.718-30.957-138.586-8.291-33.425 16.515-54.951 43.914-66.071 84.083-1.326 4.786-2.298 8.812-3.033 14.815-2.83 14.184-3.163 35.351-3.889 133.951-1.121 151.928 0.616 170.003 19.643 204.51 18.664 33.848 57.403 58.661 99.572 63.782 12.696 1.54 38.43-0.858 53.23-4.961 33.632-9.326 65.864-35.906 80.118-66.078 6.158-13.033 9.875-22.096 12.115-38.651 4.175-22.617 4.47-59.175 4.47-152.375-0.002-118.875-0.379-131.862-4.337-148.847zM499.34 736.003c-7.907 6.028-21.734 8.649-32.983 6.249-8.656-1.847-20.338-15.419-23.934-27.801-4.479-15.436-4.823-229.985-0.954-272.059 6.379-21.054 24.19-32.050 43.635-26.813 15.157 4.082 22.915 13.575 27.336 33.457 3.282 14.754 3.67 33.129 2.972 141.26-0.46 71.701-0.716 106.742-3.058 125.553-2.382 11.87-6.319 15.047-13.015 20.154z",
          "M2300.389 534.137h45.57l-0.726-41.281c-0.705-37.869-1.263-42.2-6.324-52.472-7.982-16.21-19.759-23.401-38.446-23.401-22.448 0-36.678 10.849-43.388 33.141-2.858 9.486-5.863 74.685-3.707 80.308 1.205 3.144 7.724 3.705 47.021 3.705z",
          "M1995.795 440.237c-6.077-12.247-17.385-18.278-30.525-17.806-10.221 0.365-21.561 4.677-32.488 13.010l-8.14 6.177v296.598l8.14 6.177c18.429 14.052 38.674 17.031 52.619 7.703 5.519-3.691 9.117-8.779 11.919-16.861 3.647-10.524 3.965-24.003 3.489-148.772-0.495-130.043-0.781-137.702-5.014-146.226z",
          "M2560.878 306.633c-9.080-108.842-16.303-144.165-38.751-189.544-29.729-60.101-72.692-91.788-133.876-98.747-47.309-5.379-225.315-12.97-390.044-16.631-285.188-6.338-754.057 5.858-813.939 21.173-27.673 7.077-48.426 19.11-70.022 40.604-37.844 37.662-60.391 91.679-69.452 166.396-20.692 170.606-21.134 376.727-1.188 553.515 8.577 76.041 26.243 125.443 59.41 166.159 20.694 25.406 56.352 46.998 88.26 53.442 22.385 4.523 134.42 10.798 297.605 16.668 24.306 0.874 88.667 2.379 143.030 3.344 113.301 2.012 321.627 0.821 440.719-2.519 80.127-2.249 226.201-8.172 253.5-10.282 7.677-0.593 25.469-1.728 39.537-2.523 47.277-2.67 77.353-12.568 105.596-34.76 36.553-28.718 64.857-81.795 76.815-144.037 11.314-58.894 18.887-163.773 20.422-282.851 1.284-99.491-0.426-153.175-7.621-239.409zM1425.273 267.192l-52.982 0.654-2.326 565.143-45.932 0.581c-35.525 0.488-46.307-0.044-47.167-2.326-0.616-1.626-1.356-129.020-1.672-283.153l-0.581-280.246-103.493-1.307v-88.304l305.829 1.235 1.307 87.069-52.982 0.654zM1750.216 591.117v243.035h-83.725v-25.583c0-19.247-0.735-25.583-2.979-25.583-1.64 0-9.226 6.344-16.861 14.098-16.557 16.817-36.171 30.367-52.91 36.63-34.662 12.968-67.589 5.4-81.618-18.75-12.838-22.11-13.082-27.052-13.082-256.335v-210.547h83.653l0.654 198.265c0.623 194.821 0.714 198.393 5.377 206.333 6.182 10.521 15.608 13.347 30.597 9.231 8.817-2.423 14.836-6.707 29.143-20.931l18.024-17.952v-374.946h83.725v243.035zM2076.757 799.41c-7.372 16.424-23.806 32.509-37.283 36.485-35.167 10.382-63.375 1.923-95.935-28.708-10.103-9.505-19.51-17.224-20.931-17.224-1.712 0-2.616 7.449-2.616 22.094v22.094h-83.725v-655.845h83.725v106.982c0 58.84 0.786 106.982 1.744 106.982s9.789-7.807 19.624-17.298c22.629-21.841 41.548-31.399 65.557-33.213 42.811-3.24 68.327 18.794 80.018 69.117 3.647 15.696 3.998 33.625 3.998 179.078-0.002 177.178-0.021 177.918-14.175 209.457zM2430.99 702.168c-0.744 18.226-2.954 39.137-4.942 46.514-11.642 43.167-42.635 73.731-87.432 86.269-60.315 16.878-126.704-10.777-153.205-63.812-14.875-29.769-15.408-35.706-15.408-181.185 0-118.617 0.419-133.171 4.214-149.354 10.747-45.788 37.392-75.422 82.49-91.865 13.068-4.765 26.708-7.207 40.337-7.486 48.672-0.998 96.984 25.18 117.229 67.808 13.659 28.76 15.35 41.060 16.717 122.099l1.235 72.678-178.497 1.235-0.654 48.84c-0.93 68.901 3.716 90.088 22.313 102.621 15.645 10.54 39.679 9.745 52.765-1.744 12.263-10.768 15.726-22.336 16.933-56.107l1.091-29.653h86.195l-1.381 33.143z"
        ],
        "tags": [
          "youtube",
          "brand",
          "social"
        ],
        "defaultCode": 60062,
        "grid": 16,
        "attrs": []
      },
      "attrs": [],
      "properties": {
        "ligatures": "youtube2, brand22",
        "name": "youtube2",
        "order": 44,
        "id": 415,
        "prevSize": 32,
        "code": 60062
      },
      "setIdx": 2,
      "setId": 1,
      "iconIdx": 414
    }
  ],
  "height": 1024,
  "metadata": {
    "name": "icomoon"
  },
  "preferences": {
    "showGlyphs": true,
    "showQuickUse": true,
    "showQuickUse2": true,
    "showSVGs": true,
    "fontPref": {
      "prefix": "icon-",
      "metadata": {
        "fontFamily": "icomoon"
      },
      "metrics": {
        "emSize": 1024,
        "baseline": 6.25,
        "whitespace": 50
      },
      "embed": false
    },
    "imagePref": {
      "prefix": "icon-",
      "png": true,
      "useClassSelector": true,
      "color": 0,
      "bgColor": 16777215,
      "classSelector": ".icon"
    },
    "historySize": 50,
    "showCodes": true,
    "gridSize": 16
  }
}